[
    {
        "title": "Mow the lawn",
        "project": "House Chores",
        "elapsed": 5459577,
        "id": "0a4a79cb-b06d-4cb1-883d-549a1e3b66d7",
        "runningSince": null
    },
    {
        "title": "Ponder origins of universe",
        "project": "Life Chores",
        "id": "2c43306e-5b44-4ff8-8753-33c35adbd06f",
        "elapsed": 133655366579,
        "runningSince": null
    },
    {
        "title": "111",
        "project": "22",
        "id": "0a9f8b75-c145-4ad9-a069-119c99521942",
        "elapsed": 1466372790,
        "runningSince": null
    }
]